<svg xmlns="http://www.w3.org/2000/svg" width="82.77" height="53.1" viewBox="0 0 82.77 53.1">
  <title>Ресурс 5</title>
  <g id="Слой_2" data-name="Слой 2">
    <g id="Layer_1" data-name="Layer 1">
      <g>
        <line x1="1.86" y1="16.12" x2="9.98" y2="24.8" style="fill: none;stroke: #484751;stroke-linecap: square;stroke-miterlimit: 10;stroke-width: 2.63216996192932px"/>
        <path d="M67.57,4.45,62.08,9.36,48.9,1.92a4.7,4.7,0,0,0-4.54,0l-19,10.45a.92.92,0,0,0-.33,1.3L26.48,16a2.13,2.13,0,0,0,2.18.95l14.43-3.08a4.75,4.75,0,0,1,4.69,1.65L62.65,33.81a2.86,2.86,0,0,1-.35,4l-2.22,1.94A2.87,2.87,0,0,1,56,39.38l-10-12.33" style="fill: none;stroke: #484751;stroke-linecap: square;stroke-miterlimit: 10;stroke-width: 2.63216996192932px"/>
        <line x1="25.12" y1="12.39" x2="18.08" y2="4.5" style="fill: none;stroke: #484751;stroke-linecap: square;stroke-miterlimit: 10;stroke-width: 2.63216996192932px"/>
        <path d="M80.91,19.13l-5.62,5s-.85,6.85-6.07,9.22" style="fill: none;stroke: #484751;stroke-linecap: square;stroke-miterlimit: 10;stroke-width: 2.63216996192932px"/>
        <path d="M40,33l8.77,10.74a2.87,2.87,0,0,0,4.06.4l2-1.64a2.88,2.88,0,0,0,.42-4l-5.67-7" style="fill: none;stroke: #484751;stroke-linecap: square;stroke-miterlimit: 10;stroke-width: 2.63216996192932px"/>
        <path d="M35.12,39.84l6.4,7.8a2.87,2.87,0,0,0,4.06.39l1.76-1.46a2.89,2.89,0,0,0,.39-4L40.84,34.1" style="fill: none;stroke: #484751;stroke-linecap: square;stroke-miterlimit: 10;stroke-width: 2.63216996192932px"/>
        <path d="M33.63,50.52l.21.24a2.87,2.87,0,0,0,4,.36l1.67-1.39a2.88,2.88,0,0,0,.39-4l-4.81-5.86" style="fill: none;stroke: #484751;stroke-linecap: square;stroke-miterlimit: 10;stroke-width: 2.63216996192932px"/>
        <path d="M11.24,32.72,9,30.08a1.89,1.89,0,0,1,.19-2.66l2.65-2.28a1.88,1.88,0,0,1,2.65.19L16.73,28a1.87,1.87,0,0,1-.2,2.65l-2.64,2.29a1.88,1.88,0,0,1-2.65-.2Z" style="fill: none;stroke: #484751;stroke-linecap: square;stroke-miterlimit: 10;stroke-width: 2.63216996192932px"/>
        <path d="M16,38.09l-2.27-2.62a1.87,1.87,0,0,1,.2-2.65l2.62-2.27a1.88,1.88,0,0,1,2.65.2l2.27,2.62a1.88,1.88,0,0,1-.2,2.65L18.6,38.29a1.87,1.87,0,0,1-2.65-.2Z" style="fill: none;stroke: #484751;stroke-linecap: square;stroke-miterlimit: 10;stroke-width: 2.63216996192932px"/>
        <path d="M20.67,43.56,18.4,40.94a1.88,1.88,0,0,1,.2-2.65L21.22,36a1.87,1.87,0,0,1,2.65.2l2.27,2.62a1.87,1.87,0,0,1-.2,2.65l-2.62,2.27a1.87,1.87,0,0,1-2.65-.2Z" style="fill: none;stroke: #484751;stroke-linecap: square;stroke-miterlimit: 10;stroke-width: 2.63216996192932px"/>
        <path d="M25.5,47.56,22.69,44.3l3.25-2.81a1.89,1.89,0,0,1,2.66.19l1.58,1.84a1.87,1.87,0,0,1-.2,2.65l-1.83,1.58a1.88,1.88,0,0,1-2.65-.19Z" style="fill: none;stroke: #484751;stroke-linecap: square;stroke-miterlimit: 10;stroke-width: 2.63216996192932px"/>
      </g>
    </g>
  </g>
</svg>
