<svg xmlns="http://www.w3.org/2000/svg" width="1165" height="374" viewBox="0 0 1165 374">
  <title>graph</title>
  <g id="Слой_2" data-name="Слой 2">
    <g id="Layer_1" data-name="Layer 1">
      <g>
        <line y1="373.5" x2="1165" y2="373.5" style="fill: none;stroke: #484c55;stroke-miterlimit: 10;opacity: 0.5"/>
        <line y1="336.2" x2="1165" y2="336.2" style="fill: none;stroke: #484c55;stroke-miterlimit: 10;opacity: 0.5"/>
        <line y1="298.9" x2="1165" y2="298.9" style="fill: none;stroke: #484c55;stroke-miterlimit: 10;opacity: 0.5"/>
        <line y1="261.6" x2="1165" y2="261.6" style="fill: none;stroke: #484c55;stroke-miterlimit: 10;opacity: 0.5"/>
        <line y1="224.3" x2="1165" y2="224.3" style="fill: none;stroke: #484c55;stroke-miterlimit: 10;opacity: 0.5"/>
        <line y1="187" x2="1165" y2="187" style="fill: none;stroke: #484c55;stroke-miterlimit: 10;opacity: 0.5"/>
        <line y1="149.7" x2="1165" y2="149.7" style="fill: none;stroke: #484c55;stroke-miterlimit: 10;opacity: 0.5"/>
        <line y1="112.4" x2="1165" y2="112.4" style="fill: none;stroke: #484c55;stroke-miterlimit: 10;opacity: 0.5"/>
        <line y1="75.1" x2="1165" y2="75.1" style="fill: none;stroke: #484c55;stroke-miterlimit: 10;opacity: 0.5"/>
        <line y1="37.8" x2="1165" y2="37.8" style="fill: none;stroke: #484c55;stroke-miterlimit: 10;opacity: 0.5"/>
        <line y1="0.5" x2="1165" y2="0.5" style="fill: none;stroke: #484c55;stroke-miterlimit: 10;opacity: 0.5"/>
      </g>
    </g>
  </g>
</svg>
