<svg xmlns="http://www.w3.org/2000/svg" width="36.68" height="36.68" viewBox="0 0 36.68 36.68">
  <title>slider-arrow</title>
  <g id="Слой_2" data-name="Слой 2">
    <g id="Layer_1" data-name="Layer 1">
      <g>
        <circle cx="18.34" cy="18.34" r="18.34" style="fill: #9bacb5"/>
        <polyline points="21.53 27 12.87 18.34 21.53 9.69" style="fill: none;stroke: #90d1c8;stroke-miterlimit: 10;stroke-width: 2px"/>
      </g>
    </g>
  </g>
</svg>
