{
    "key": "group_5dfbcd93e39f2",
    "title": "EMAIL Template (propouse for delivery)",
    "fields": [
        {
            "key": "field_5dfbcd93e79c0",
            "label": "BODY",
            "name": "themltpl_body_delivery",
            "type": "wysiwyg",
            "instructions": "",
            "required": 0,
            "conditional_logic": 0,
            "wrapper": {
                "width": "",
                "class": "",
                "id": ""
            },
            "admin_column_enabled": 0,
            "admin_column_post_types": "",
            "admin_column_taxonomies": "",
            "default_value": "",
            "tabs": "text",
            "media_upload": 0,
            "toolbar": "full",
            "delay": 0
        }
    ],
    "location": [
        [
            {
                "param": "options_page",
                "operator": "==",
                "value": "acf-options-theme-options"
            }
        ]
    ],
    "menu_order": 0,
    "position": "normal",
    "style": "default",
    "label_placement": "top",
    "instruction_placement": "label",
    "hide_on_screen": "",
    "active": 1,
    "description": "",
    "modified": 1576783343
}